<?xml version="1.0" encoding="UTF-8"?>
<svg width="20px" height="14px" viewBox="0 0 20 14" version="1.1" xmlns="http://www.w3.org/2000/svg" xmlns:xlink="http://www.w3.org/1999/xlink">
    <!-- Generator: Sketch 57 (83077) - https://sketch.com -->
    <title>Untitled 2</title>
    <desc>Created with Sketch.</desc>
    <g id="Page-1" stroke="none" stroke-width="1" fill="none" fill-rule="evenodd" stroke-opacity="0.8">
        <g id="sound-off" transform="translate(1.000000, 0.000000)" stroke="#FFFFFF" stroke-width="1.5">
            <path d="M14,9 L16.0005,7 M18,5 L16.0005,7 M16.0005,7 L14,5 M16.0005,7 L18,9" id="Shape" stroke-linecap="round" stroke-linejoin="round"></path>
            <path d="M0,9 L0,5 C0,4.44772 0.44772,4 1,4 L3.69722,4 C3.89465,4 4.08766,3.94156 4.25192,3.83205 L8.4453,1.03647 C9.1099,0.59343 10,1.06982 10,1.86852 L10,12.1315 C10,12.9302 9.1099,13.4066 8.4453,12.9635 L4.25192,10.1679 C4.08766,10.0584 3.89465,10 3.69722,10 L1,10 C0.44772,10 0,9.5523 0,9 Z" id="Path"></path>
        </g>
    </g>
</svg>